<?xml version="1.0" encoding="UTF-8"?>
<svg xmlns="http://www.w3.org/2000/svg" xmlns:xlink="http://www.w3.org/1999/xlink" width="380.495" height="51.879" viewBox="0 0 380.495 51.879">
<defs>
<g>
<g id="glyph-0-0">
</g>
<g id="glyph-0-1">
<path d="M 4.71875 -6.484375 C 4.578125 -6.921875 4.28125 -6.921875 4.09375 -6.921875 L 3.203125 -6.921875 C 3.015625 -6.921875 2.71875 -6.921875 2.578125 -6.484375 L 0.46875 -0.46875 C 0.421875 -0.34375 0.421875 -0.3125 0.421875 -0.265625 C 0.421875 0 0.671875 0 0.8125 0 L 1.171875 0 C 1.34375 0 1.65625 0 1.796875 -0.40625 L 2.1875 -1.5 L 4.9375 -1.5 L 5.28125 -0.546875 C 5.40625 -0.203125 5.46875 0 5.953125 0 L 6.484375 0 C 6.625 0 6.875 0 6.875 -0.265625 C 6.875 -0.3125 6.875 -0.34375 6.828125 -0.46875 Z M 3.203125 -4.46875 C 3.34375 -4.921875 3.484375 -5.296875 3.5625 -5.65625 C 3.625 -5.40625 3.625 -5.390625 3.703125 -5.15625 L 4.640625 -2.359375 L 2.484375 -2.359375 Z M 3.203125 -4.46875 "/>
</g>
<g id="glyph-0-2">
<path d="M 4.984375 -3.234375 C 4.984375 -4.265625 4.546875 -4.671875 3.53125 -4.671875 C 2.484375 -4.671875 2.03125 -3.921875 1.90625 -3.65625 L 1.890625 -3.65625 L 1.890625 -4.140625 C 1.890625 -4.46875 1.828125 -4.625 1.421875 -4.625 L 1.078125 -4.625 C 0.71875 -4.625 0.59375 -4.515625 0.59375 -4.140625 L 0.59375 -0.484375 C 0.59375 -0.125 0.703125 0 1.078125 0 L 1.46875 0 C 1.859375 0 1.953125 -0.125 1.953125 -0.484375 L 1.953125 -2.6875 C 1.953125 -3.546875 2.53125 -3.953125 3.046875 -3.953125 C 3.53125 -3.953125 3.625 -3.734375 3.625 -3.21875 L 3.625 -0.484375 C 3.625 -0.15625 3.703125 0 4.109375 0 L 4.5 0 C 4.890625 0 4.984375 -0.125 4.984375 -0.484375 Z M 4.984375 -3.234375 "/>
</g>
<g id="glyph-0-3">
<path d="M 4.625 -3.15625 C 4.625 -4.71875 3.109375 -4.734375 2.609375 -4.734375 C 2.140625 -4.734375 1.640625 -4.6875 0.984375 -4.421875 C 0.765625 -4.328125 0.71875 -4.296875 0.71875 -4.1875 C 0.71875 -4.109375 0.78125 -3.53125 0.78125 -3.453125 C 0.796875 -3.40625 0.84375 -3.34375 0.921875 -3.34375 C 0.96875 -3.34375 1 -3.375 1.03125 -3.40625 C 1.453125 -3.859375 1.953125 -4.078125 2.578125 -4.078125 C 3.109375 -4.078125 3.265625 -3.75 3.265625 -3.15625 L 3.265625 -2.8125 C 2.921875 -2.8125 0.3125 -2.796875 0.3125 -1.328125 C 0.3125 -0.625 0.875 0.109375 1.75 0.109375 C 2.078125 0.109375 2.828125 0.015625 3.296875 -0.671875 L 3.296875 -0.484375 C 3.296875 -0.15625 3.375 0 3.78125 0 L 4.140625 0 C 4.53125 0 4.625 -0.125 4.625 -0.484375 Z M 3.265625 -1.53125 C 3.265625 -0.609375 2.328125 -0.609375 2.296875 -0.609375 C 1.875 -0.609375 1.609375 -0.96875 1.609375 -1.34375 C 1.609375 -2.328125 2.984375 -2.390625 3.265625 -2.40625 Z M 3.265625 -1.53125 "/>
</g>
<g id="glyph-0-4">
<path d="M 1.9375 -6.4375 C 1.9375 -6.765625 1.859375 -6.921875 1.453125 -6.921875 L 1.09375 -6.921875 C 0.734375 -6.921875 0.609375 -6.8125 0.609375 -6.4375 L 0.609375 -0.484375 C 0.609375 -0.125 0.71875 0 1.09375 0 L 1.453125 0 C 1.828125 0 1.9375 -0.125 1.9375 -0.484375 Z M 1.9375 -6.4375 "/>
</g>
<g id="glyph-0-5">
<path d="M 4.671875 -4.09375 C 4.71875 -4.234375 4.71875 -4.25 4.71875 -4.296875 C 4.71875 -4.5625 4.453125 -4.5625 4.3125 -4.5625 L 4.09375 -4.5625 C 3.9375 -4.5625 3.71875 -4.5625 3.5625 -4.34375 C 3.53125 -4.28125 2.734375 -2.078125 2.6875 -1.421875 L 2.671875 -1.421875 C 2.625 -1.90625 2.21875 -2.828125 1.78125 -3.78125 C 1.5 -4.421875 1.4375 -4.5625 0.9375 -4.5625 L 0.671875 -4.5625 C 0.53125 -4.5625 0.296875 -4.5625 0.296875 -4.3125 C 0.296875 -4.265625 0.3125 -4.203125 0.34375 -4.140625 L 2.21875 0 C 2.140625 0.203125 2.109375 0.3125 2.078125 0.421875 C 1.96875 0.75 1.796875 1.203125 1.25 1.203125 C 0.921875 1.203125 0.703125 1.0625 0.59375 0.984375 C 0.53125 0.953125 0.515625 0.953125 0.484375 0.953125 C 0.4375 0.953125 0.359375 0.984375 0.359375 1.09375 C 0.359375 1.171875 0.421875 1.859375 0.453125 1.90625 C 0.53125 2.03125 1.078125 2.046875 1.234375 2.046875 C 2.46875 2.046875 2.953125 0.875 3.046875 0.625 Z M 4.671875 -4.09375 "/>
</g>
<g id="glyph-0-6">
<path d="M 2.171875 -3.84375 L 3.0625 -3.84375 C 3.1875 -3.84375 3.53125 -3.84375 3.53125 -4.203125 C 3.53125 -4.5625 3.1875 -4.5625 3.0625 -4.5625 L 2.171875 -4.5625 L 2.171875 -5.390625 C 2.171875 -5.71875 2.109375 -5.875 1.6875 -5.875 L 1.390625 -5.875 C 1.03125 -5.875 0.90625 -5.765625 0.90625 -5.390625 L 0.90625 -4.5625 L 0.671875 -4.5625 C 0.5625 -4.5625 0.203125 -4.5625 0.203125 -4.203125 C 0.203125 -3.84375 0.5625 -3.84375 0.671875 -3.84375 L 0.875 -3.84375 L 0.875 -1.328125 C 0.875 -0.3125 1.234375 0.109375 1.921875 0.109375 C 2.015625 0.109375 2.453125 0.109375 2.96875 -0.046875 C 3.140625 -0.09375 3.71875 -0.28125 3.71875 -0.46875 C 3.71875 -0.5 3.703125 -0.5625 3.640625 -0.78125 C 3.59375 -0.984375 3.5625 -1.03125 3.484375 -1.03125 C 3.421875 -1.03125 3.421875 -1.03125 3.359375 -0.96875 C 3.25 -0.890625 2.984375 -0.671875 2.5625 -0.671875 C 2.328125 -0.671875 2.171875 -0.84375 2.171875 -1.5 Z M 2.171875 -3.84375 "/>
</g>
<g id="glyph-0-7">
<path d="M 1.015625 -6.921875 C 0.703125 -6.921875 0.53125 -6.875 0.53125 -6.46875 L 0.53125 -6.015625 C 0.53125 -5.6875 0.640625 -5.5625 1 -5.5625 L 1.53125 -5.5625 C 2 -5.5625 2 -5.765625 2 -6.234375 C 2 -6.71875 2 -6.921875 1.53125 -6.921875 Z M 1.9375 -4.09375 C 1.9375 -4.40625 1.859375 -4.5625 1.453125 -4.5625 L 1.09375 -4.5625 C 0.734375 -4.5625 0.609375 -4.453125 0.609375 -4.09375 L 0.609375 -0.484375 C 0.609375 -0.125 0.71875 0 1.09375 0 L 1.453125 0 C 1.828125 0 1.9375 -0.125 1.9375 -0.484375 Z M 1.9375 -4.09375 "/>
</g>
<g id="glyph-0-8">
<path d="M 4.5625 -0.5 C 4.5625 -0.609375 4.515625 -1.0625 4.5 -1.203125 C 4.5 -1.21875 4.46875 -1.328125 4.375 -1.328125 C 4.34375 -1.328125 4.3125 -1.328125 4.21875 -1.21875 C 4.046875 -1.078125 3.578125 -0.671875 2.765625 -0.671875 C 1.71875 -0.671875 1.71875 -1.671875 1.71875 -2.3125 C 1.71875 -3.125 1.78125 -3.953125 2.796875 -3.953125 C 3.4375 -3.953125 3.703125 -3.796875 4.0625 -3.5 C 4.1875 -3.390625 4.203125 -3.390625 4.25 -3.390625 C 4.34375 -3.390625 4.359375 -3.484375 4.375 -3.515625 C 4.390625 -3.59375 4.5 -4.15625 4.5 -4.203125 C 4.5 -4.296875 4.421875 -4.34375 4.25 -4.421875 C 3.78125 -4.640625 3.484375 -4.734375 2.78125 -4.734375 C 1.296875 -4.734375 0.375 -4.03125 0.375 -2.296875 C 0.375 -0.640625 1.21875 0.109375 2.734375 0.109375 C 3 0.109375 3.59375 0.09375 4.265625 -0.234375 C 4.546875 -0.390625 4.5625 -0.40625 4.5625 -0.5 Z M 4.5625 -0.5 "/>
</g>
<g id="glyph-0-9">
<path d="M 4.96875 -6.4375 C 4.96875 -6.765625 4.90625 -6.921875 4.5 -6.921875 L 4.125 -6.921875 C 3.75 -6.921875 3.65625 -6.78125 3.65625 -6.4375 L 3.65625 -4.171875 C 3.203125 -4.609375 2.703125 -4.671875 2.390625 -4.671875 C 0.375 -4.671875 0.375 -2.765625 0.375 -2.265625 C 0.375 -1.8125 0.375 0.109375 2.34375 0.109375 C 2.765625 0.109375 3.1875 -0.015625 3.625 -0.46875 C 3.625 -0.09375 3.765625 0 4.09375 0 L 4.5 0 C 4.875 0 4.96875 -0.125 4.96875 -0.484375 Z M 3.625 -1.25 C 3.625 -1.078125 3.625 -0.984375 3.328125 -0.78125 C 3.078125 -0.625 2.84375 -0.609375 2.734375 -0.609375 C 1.71875 -0.609375 1.71875 -1.53125 1.71875 -2.265625 C 1.71875 -3.015625 1.71875 -3.953125 2.84375 -3.953125 C 3.125 -3.953125 3.40625 -3.859375 3.625 -3.65625 Z M 3.625 -1.25 "/>
</g>
<g id="glyph-0-10">
<path d="M 2.171875 -4.296875 C 2.171875 -4.5625 2.15625 -4.5625 1.90625 -4.5625 L 1.140625 -4.5625 C 0.875 -4.5625 0.875 -4.5625 0.875 -4.296875 L 0.875 -3.53125 C 0.875 -3.265625 0.875 -3.265625 1.140625 -3.265625 L 1.90625 -3.265625 C 2.15625 -3.265625 2.171875 -3.265625 2.171875 -3.53125 Z M 0.875 -0.265625 C 0.875 -0.015625 0.875 0 1.140625 0 L 1.90625 0 C 2.15625 0 2.171875 -0.015625 2.171875 -0.265625 L 2.171875 -1.03125 C 2.171875 -1.296875 2.15625 -1.3125 1.90625 -1.3125 L 1.140625 -1.3125 C 0.875 -1.3125 0.875 -1.296875 0.875 -1.03125 Z M 0.875 -0.265625 "/>
</g>
<g id="glyph-0-11">
<path d="M 2.375 -2.671875 L 3.890625 -2.671875 C 5.453125 -2.671875 6.390625 -3.328125 6.390625 -4.765625 C 6.390625 -6.265625 5.40625 -6.921875 3.875 -6.921875 L 1.390625 -6.921875 C 1.03125 -6.921875 0.90625 -6.8125 0.90625 -6.4375 L 0.90625 -0.484375 C 0.90625 -0.125 1.015625 0 1.390625 0 L 1.890625 0 C 2.265625 0 2.375 -0.125 2.375 -0.484375 Z M 3.5625 -6.0625 C 4.875 -6.0625 5 -5.46875 5 -4.765625 C 5 -4.09375 4.890625 -3.453125 3.5625 -3.453125 L 2.34375 -3.453125 L 2.34375 -6.0625 Z M 3.5625 -6.0625 "/>
</g>
<g id="glyph-0-12">
<path d="M 5.53125 -3.265625 C 5.328125 -2.75 4.953125 -1.828125 4.875 -1.484375 L 4.859375 -1.484375 C 4.78125 -1.84375 4.359375 -2.828125 4.15625 -3.359375 L 2.875 -6.515625 C 2.71875 -6.921875 2.390625 -6.921875 2.21875 -6.921875 L 1.390625 -6.921875 C 1.03125 -6.921875 0.90625 -6.8125 0.90625 -6.4375 L 0.90625 -0.484375 C 0.90625 -0.125 1.015625 0 1.390625 0 L 1.65625 0 C 2.03125 0 2.140625 -0.125 2.140625 -0.484375 L 2.140625 -5.625 C 2.25 -5.1875 2.703125 -4.078125 2.9375 -3.484375 L 4.09375 -0.640625 C 4.28125 -0.21875 4.515625 -0.21875 4.859375 -0.21875 C 5.1875 -0.21875 5.4375 -0.21875 5.609375 -0.640625 L 6.890625 -3.78125 C 6.984375 -4.015625 7.53125 -5.375 7.59375 -5.625 L 7.609375 -5.625 L 7.609375 -0.484375 C 7.609375 -0.15625 7.671875 0 8.078125 0 L 8.359375 0 C 8.734375 0 8.828125 -0.125 8.828125 -0.484375 L 8.828125 -6.4375 C 8.828125 -6.765625 8.765625 -6.921875 8.359375 -6.921875 L 7.515625 -6.921875 C 7.265625 -6.921875 7.015625 -6.890625 6.84375 -6.484375 Z M 5.53125 -3.265625 "/>
</g>
<g id="glyph-0-13">
<path d="M 3.015625 -6.515625 C 2.8125 -6.921875 2.515625 -6.921875 2.3125 -6.921875 L 1.390625 -6.921875 C 1.03125 -6.921875 0.90625 -6.8125 0.90625 -6.4375 L 0.90625 -0.484375 C 0.90625 -0.125 1.015625 0 1.390625 0 L 1.65625 0 C 2.03125 0 2.140625 -0.125 2.140625 -0.484375 L 2.140625 -5.71875 L 4.890625 -0.40625 C 5.09375 0 5.390625 0 5.59375 0 L 6.515625 0 C 6.890625 0 7 -0.125 7 -0.484375 L 7 -6.4375 C 7 -6.765625 6.921875 -6.921875 6.515625 -6.921875 L 6.25 -6.921875 C 5.875 -6.921875 5.765625 -6.78125 5.765625 -6.4375 L 5.765625 -1.203125 Z M 3.015625 -6.515625 "/>
</g>
<g id="glyph-0-14">
<path d="M 4.984375 -4.09375 C 4.984375 -4.40625 4.921875 -4.5625 4.5 -4.5625 L 4.109375 -4.5625 C 3.734375 -4.5625 3.625 -4.4375 3.625 -4.09375 L 3.625 -1.71875 C 3.625 -1.0625 3.28125 -0.5 2.578125 -0.5 C 2.015625 -0.5 1.953125 -0.640625 1.953125 -1.171875 L 1.953125 -4.09375 C 1.953125 -4.40625 1.890625 -4.5625 1.46875 -4.5625 L 1.078125 -4.5625 C 0.71875 -4.5625 0.59375 -4.453125 0.59375 -4.09375 L 0.59375 -1.25 C 0.59375 -0.1875 1.171875 0.109375 2.21875 0.109375 C 2.484375 0.109375 3.1875 0.109375 3.65625 -0.734375 L 3.65625 -0.484375 C 3.65625 -0.15625 3.734375 0 4.140625 0 L 4.5 0 C 4.890625 0 4.984375 -0.125 4.984375 -0.484375 Z M 4.984375 -4.09375 "/>
</g>
<g id="glyph-0-15">
<path d="M 8.03125 -3.234375 C 8.03125 -4.265625 7.59375 -4.671875 6.578125 -4.671875 C 5.875 -4.671875 5.328125 -4.34375 4.96875 -3.6875 C 4.8125 -4.640625 3.953125 -4.671875 3.53125 -4.671875 C 3.34375 -4.671875 2.9375 -4.671875 2.484375 -4.34375 C 2.171875 -4.109375 1.96875 -3.796875 1.90625 -3.65625 L 1.890625 -3.65625 L 1.890625 -4.140625 C 1.890625 -4.46875 1.828125 -4.625 1.421875 -4.625 L 1.078125 -4.625 C 0.71875 -4.625 0.59375 -4.515625 0.59375 -4.140625 L 0.59375 -0.484375 C 0.59375 -0.125 0.703125 0 1.078125 0 L 1.46875 0 C 1.859375 0 1.953125 -0.125 1.953125 -0.484375 L 1.953125 -2.6875 C 1.953125 -3.578125 2.5625 -3.953125 3.046875 -3.953125 C 3.53125 -3.953125 3.640625 -3.75 3.640625 -3.21875 L 3.640625 -0.484375 C 3.640625 -0.125 3.75 0 4.109375 0 L 4.515625 0 C 4.890625 0 5 -0.125 5 -0.484375 L 5 -2.6875 C 5 -3.578125 5.609375 -3.953125 6.09375 -3.953125 C 6.5625 -3.953125 6.671875 -3.75 6.671875 -3.21875 L 6.671875 -0.484375 C 6.671875 -0.125 6.78125 0 7.15625 0 L 7.5625 0 C 7.9375 0 8.03125 -0.125 8.03125 -0.484375 Z M 8.03125 -3.234375 "/>
</g>
<g id="glyph-0-16">
<path d="M 4.296875 -2.140625 C 4.53125 -2.140625 4.78125 -2.140625 4.78125 -2.59375 C 4.78125 -3.875 4.171875 -4.734375 2.6875 -4.734375 C 1.09375 -4.734375 0.3125 -3.84375 0.3125 -2.328125 C 0.3125 -0.6875 1.25 0.109375 2.828125 0.109375 C 3.203125 0.109375 3.765625 0.0625 4.421875 -0.265625 C 4.640625 -0.375 4.71875 -0.40625 4.71875 -0.53125 C 4.71875 -0.59375 4.6875 -0.890625 4.671875 -0.96875 C 4.640625 -1.28125 4.625 -1.28125 4.53125 -1.28125 C 4.5 -1.28125 4.46875 -1.28125 4.359375 -1.1875 C 3.78125 -0.671875 3.1875 -0.609375 2.859375 -0.609375 C 1.734375 -0.609375 1.609375 -1.5 1.578125 -2.140625 Z M 1.59375 -2.65625 C 1.625 -3.265625 1.828125 -4.015625 2.6875 -4.015625 C 3.484375 -4.015625 3.640625 -3.4375 3.671875 -2.65625 Z M 1.59375 -2.65625 "/>
</g>
<g id="glyph-0-17">
<path d="M 1.9375 -2.296875 C 1.9375 -3.234375 2.71875 -3.625 3.34375 -3.671875 C 3.53125 -3.671875 3.546875 -3.671875 3.546875 -3.9375 L 3.546875 -4.40625 C 3.546875 -4.609375 3.546875 -4.671875 3.375 -4.671875 C 3.09375 -4.671875 2.359375 -4.578125 1.890625 -3.5 L 1.890625 -4.140625 C 1.890625 -4.46875 1.8125 -4.625 1.40625 -4.625 L 1.09375 -4.625 C 0.734375 -4.625 0.609375 -4.515625 0.609375 -4.140625 L 0.609375 -0.484375 C 0.609375 -0.125 0.71875 0 1.09375 0 L 1.453125 0 C 1.828125 0 1.9375 -0.125 1.9375 -0.484375 Z M 1.9375 -2.296875 "/>
</g>
<g id="glyph-0-18">
<path d="M 4.671875 -4.09375 C 4.71875 -4.234375 4.71875 -4.25 4.71875 -4.28125 C 4.71875 -4.5625 4.46875 -4.5625 4.3125 -4.5625 L 4.109375 -4.5625 C 3.6875 -4.5625 3.578125 -4.421875 3.484375 -4.140625 L 2.5 -1.125 L 1.515625 -4.140625 C 1.453125 -4.34375 1.375 -4.5625 0.890625 -4.5625 L 0.65625 -4.5625 C 0.515625 -4.5625 0.265625 -4.5625 0.265625 -4.28125 C 0.265625 -4.25 0.265625 -4.234375 0.3125 -4.09375 L 1.5 -0.421875 C 1.640625 0 1.9375 0 2.125 0 L 2.84375 0 C 3.03125 0 3.34375 0 3.484375 -0.421875 Z M 4.671875 -4.09375 "/>
</g>
<g id="glyph-0-19">
<path d="M 3.203125 -7.484375 C 3.015625 -7.484375 3 -7.484375 2.828125 -7.3125 C 1.625 -6.3125 0.859375 -4.609375 0.859375 -2.5 C 0.859375 -1.28125 1.109375 0.796875 2.765625 2.296875 C 2.984375 2.5 3 2.5 3.203125 2.5 L 3.375 2.5 C 3.53125 2.5 3.65625 2.5 3.65625 2.359375 C 3.65625 2.328125 3.65625 2.3125 3.53125 2.1875 C 2.90625 1.421875 2.21875 0.1875 2.21875 -2.5 C 2.21875 -5.421875 3.046875 -6.578125 3.59375 -7.234375 C 3.625 -7.28125 3.65625 -7.3125 3.65625 -7.34375 C 3.65625 -7.484375 3.53125 -7.484375 3.375 -7.484375 Z M 3.203125 -7.484375 "/>
</g>
<g id="glyph-0-20">
<path d="M 4.8125 -3.1875 C 5.4375 -3.34375 6.390625 -3.71875 6.390625 -4.953125 C 6.390625 -6.921875 4.234375 -6.921875 3.78125 -6.921875 L 1.390625 -6.921875 C 1.03125 -6.921875 0.90625 -6.8125 0.90625 -6.4375 L 0.90625 -0.484375 C 0.90625 -0.125 1.015625 0 1.390625 0 L 1.859375 0 C 2.25 0 2.34375 -0.125 2.34375 -0.484375 L 2.34375 -3.09375 L 3.453125 -3.09375 L 5.078125 -0.234375 C 5.21875 0 5.328125 0 5.546875 0 L 6.140625 0 C 6.34375 0 6.515625 0 6.515625 -0.296875 Z M 2.34375 -3.8125 L 2.34375 -6.0625 L 3.640625 -6.0625 C 4.796875 -6.0625 5 -5.609375 5 -4.9375 C 5 -4.359375 4.859375 -3.8125 3.640625 -3.8125 Z M 2.34375 -3.8125 "/>
</g>
<g id="glyph-0-21">
<path d="M 0.875 -7.484375 C 0.71875 -7.484375 0.609375 -7.484375 0.609375 -7.34375 C 0.609375 -7.3125 0.609375 -7.296875 0.734375 -7.171875 C 1.34375 -6.40625 2.046875 -5.171875 2.046875 -2.5 C 2.046875 0.421875 1.21875 1.578125 0.671875 2.25 C 0.609375 2.328125 0.609375 2.34375 0.609375 2.359375 C 0.609375 2.5 0.71875 2.5 0.875 2.5 L 1.0625 2.5 C 1.234375 2.5 1.25 2.5 1.4375 2.328125 C 2.625 1.328125 3.40625 -0.375 3.40625 -2.5 C 3.40625 -3.703125 3.15625 -5.78125 1.484375 -7.28125 C 1.28125 -7.484375 1.25 -7.484375 1.0625 -7.484375 Z M 0.875 -7.484375 "/>
</g>
<g id="glyph-0-22">
<path d="M 1.390625 -6.921875 C 1.03125 -6.921875 0.90625 -6.8125 0.90625 -6.4375 L 0.90625 -0.484375 C 0.90625 -0.125 1.015625 0 1.390625 0 L 4.109375 0 C 4.859375 0 6.6875 -0.125 6.6875 -1.9375 C 6.6875 -3.34375 5.296875 -3.5625 4.9375 -3.625 C 5.859375 -3.828125 6.375 -4.34375 6.375 -5.125 C 6.375 -6.921875 4.25 -6.921875 3.84375 -6.921875 Z M 2.3125 -3.953125 L 2.3125 -6.0625 L 3.484375 -6.0625 C 3.875 -6.0625 5.03125 -6.03125 5.03125 -5.09375 C 5.03125 -3.953125 3.71875 -3.953125 3.46875 -3.953125 Z M 2.3125 -0.859375 L 2.3125 -3.234375 L 3.5625 -3.234375 C 3.921875 -3.234375 5.296875 -3.234375 5.296875 -1.953125 C 5.296875 -0.921875 4.234375 -0.859375 3.765625 -0.859375 Z M 2.3125 -0.859375 "/>
</g>
<g id="glyph-0-23">
<path d="M 3.125 -2.71875 L 4.65625 -4.140625 C 4.78125 -4.25 4.8125 -4.28125 4.8125 -4.359375 C 4.8125 -4.5625 4.609375 -4.5625 4.46875 -4.5625 L 3.890625 -4.5625 C 3.703125 -4.5625 3.515625 -4.5625 3.296875 -4.359375 L 1.859375 -3.015625 L 1.859375 -6.4375 C 1.859375 -6.765625 1.78125 -6.921875 1.375 -6.921875 L 1.171875 -6.921875 C 0.8125 -6.921875 0.6875 -6.8125 0.6875 -6.4375 L 0.6875 -0.484375 C 0.6875 -0.125 0.796875 0 1.171875 0 L 1.34375 0 C 1.71875 0 1.828125 -0.125 1.828125 -0.484375 L 1.828125 -1.515625 L 2.296875 -1.9375 L 3.59375 -0.25 C 3.765625 -0.03125 3.828125 0 4.109375 0 L 4.59375 0 C 4.734375 0 4.953125 0 4.953125 -0.21875 C 4.953125 -0.234375 4.953125 -0.3125 4.859375 -0.4375 Z M 3.125 -2.71875 "/>
</g>
<g id="glyph-0-24">
<path d="M 2.5625 -1.921875 C 2.6875 -1.921875 3.046875 -1.921875 3.046875 -2.28125 C 3.046875 -2.640625 2.6875 -2.640625 2.5625 -2.640625 L 0.59375 -2.640625 C 0.484375 -2.640625 0.125 -2.640625 0.125 -2.28125 C 0.125 -1.921875 0.484375 -1.921875 0.59375 -1.921875 Z M 2.5625 -1.921875 "/>
</g>
<g id="glyph-0-25">
<path d="M 4.984375 -3.234375 C 4.984375 -4.265625 4.546875 -4.671875 3.53125 -4.671875 C 2.53125 -4.671875 2.078125 -3.984375 1.9375 -3.703125 L 1.921875 -3.703125 L 1.921875 -6.4375 C 1.921875 -6.765625 1.859375 -6.921875 1.453125 -6.921875 L 1.078125 -6.921875 C 0.71875 -6.921875 0.59375 -6.8125 0.59375 -6.4375 L 0.59375 -0.484375 C 0.59375 -0.125 0.703125 0 1.078125 0 L 1.46875 0 C 1.859375 0 1.953125 -0.125 1.953125 -0.484375 L 1.953125 -2.6875 C 1.953125 -3.546875 2.53125 -3.953125 3.046875 -3.953125 C 3.53125 -3.953125 3.625 -3.734375 3.625 -3.21875 L 3.625 -0.484375 C 3.625 -0.15625 3.703125 0 4.109375 0 L 4.5 0 C 4.890625 0 4.984375 -0.125 4.984375 -0.484375 Z M 4.984375 -3.234375 "/>
</g>
<g id="glyph-0-26">
<path d="M 5.15625 -2.25 C 5.15625 -3.875 4.359375 -4.734375 2.734375 -4.734375 C 1.078125 -4.734375 0.3125 -3.84375 0.3125 -2.25 C 0.3125 -0.625 1.171875 0.109375 2.734375 0.109375 C 4.296875 0.109375 5.15625 -0.609375 5.15625 -2.25 Z M 2.734375 -0.671875 C 1.671875 -0.671875 1.671875 -1.5625 1.671875 -2.359375 C 1.671875 -3.125 1.671875 -4.015625 2.734375 -4.015625 C 3.8125 -4.015625 3.8125 -3.140625 3.8125 -2.359375 C 3.8125 -1.578125 3.8125 -0.671875 2.734375 -0.671875 Z M 2.734375 -0.671875 "/>
</g>
<g id="glyph-0-27">
<path d="M 1.96875 -0.390625 C 2.40625 0.109375 2.953125 0.109375 3.09375 0.109375 C 5.21875 0.109375 5.21875 -1.796875 5.21875 -2.296875 C 5.21875 -2.796875 5.21875 -4.671875 3.40625 -4.671875 C 2.828125 -4.671875 2.296875 -4.4375 1.9375 -4.09375 C 1.9375 -4.46875 1.796875 -4.5625 1.453125 -4.5625 L 1.09375 -4.5625 C 0.734375 -4.5625 0.609375 -4.453125 0.609375 -4.09375 L 0.609375 1.453125 C 0.609375 1.8125 0.71875 1.9375 1.09375 1.9375 L 1.484375 1.9375 C 1.859375 1.9375 1.96875 1.796875 1.96875 1.453125 Z M 1.96875 -3.5625 C 2.078125 -3.671875 2.40625 -3.890625 2.828125 -3.890625 C 3.84375 -3.890625 3.859375 -2.71875 3.859375 -2.28125 C 3.859375 -1.890625 3.859375 -0.609375 2.734375 -0.609375 C 2.5 -0.609375 2.328125 -0.6875 2.203125 -0.78125 C 1.96875 -0.953125 1.96875 -1 1.96875 -1.171875 Z M 1.96875 -3.5625 "/>
</g>
<g id="glyph-0-28">
<path d="M 1.9375 -6.4375 C 1.9375 -6.765625 1.859375 -6.921875 1.453125 -6.921875 L 1.09375 -6.921875 C 0.734375 -6.921875 0.609375 -6.8125 0.609375 -6.4375 L 0.609375 -0.484375 C 0.609375 -0.125 0.71875 0 1.09375 0 L 1.484375 0 C 1.65625 0 1.953125 0 1.96875 -0.390625 C 2.421875 0.109375 2.9375 0.109375 3.09375 0.109375 C 5.21875 0.109375 5.21875 -1.796875 5.21875 -2.296875 C 5.21875 -2.78125 5.21875 -4.671875 3.34375 -4.671875 C 2.515625 -4.671875 2.03125 -4.21875 1.9375 -4.109375 Z M 1.96875 -3.609375 C 2.09375 -3.734375 2.390625 -3.953125 2.84375 -3.953125 C 3.859375 -3.953125 3.859375 -3.046875 3.859375 -2.296875 C 3.859375 -1.5625 3.859375 -0.609375 2.734375 -0.609375 C 2.328125 -0.609375 2.078125 -0.859375 1.96875 -1 Z M 1.96875 -3.609375 "/>
</g>
<g id="glyph-0-29">
<path d="M 2.6875 -4.390625 C 2.46875 -4.453125 1.859375 -4.671875 1.859375 -5.25 C 1.859375 -6.09375 2.703125 -6.109375 3.046875 -6.109375 C 3.59375 -6.109375 4.09375 -5.984375 4.578125 -5.5 C 4.75 -5.359375 4.75 -5.34375 4.796875 -5.34375 C 4.859375 -5.34375 4.90625 -5.375 4.9375 -5.515625 L 5.078125 -6.390625 C 5.109375 -6.46875 5.109375 -6.484375 5.109375 -6.515625 C 5.109375 -6.59375 5.09375 -6.609375 4.84375 -6.734375 C 4.140625 -7.09375 3.546875 -7.140625 3.046875 -7.140625 C 2.15625 -7.140625 0.609375 -6.921875 0.609375 -5.0625 C 0.609375 -4.359375 0.984375 -3.890625 1.171875 -3.703125 C 1.671875 -3.1875 2.140625 -3.078125 2.921875 -2.90625 C 3.484375 -2.765625 3.703125 -2.71875 3.921875 -2.515625 C 4.015625 -2.421875 4.234375 -2.21875 4.234375 -1.828125 C 4.234375 -0.890625 3.375 -0.875 3.046875 -0.875 C 2.203125 -0.875 1.46875 -1.203125 0.984375 -1.65625 C 0.859375 -1.78125 0.84375 -1.78125 0.796875 -1.78125 C 0.734375 -1.78125 0.6875 -1.75 0.65625 -1.59375 L 0.515625 -0.734375 C 0.484375 -0.640625 0.484375 -0.625 0.484375 -0.59375 C 0.484375 -0.390625 1.53125 -0.03125 1.578125 -0.015625 C 2.25 0.203125 2.78125 0.21875 3.046875 0.21875 C 4.53125 0.21875 5.46875 -0.453125 5.46875 -2 C 5.46875 -3.109375 4.640625 -3.953125 3.65625 -4.171875 Z M 2.6875 -4.390625 "/>
</g>
<g id="glyph-0-30">
<path d="M 7.171875 -4.28125 C 7.140625 -4.5625 6.953125 -4.5625 6.65625 -4.5625 C 6.1875 -4.5625 6.0625 -4.53125 5.921875 -4.015625 C 5.703125 -3.25 5.265625 -1.6875 5.109375 -1.125 L 4.265625 -4.109375 C 4.203125 -4.34375 4.140625 -4.5625 3.671875 -4.5625 C 3.53125 -4.5625 3.296875 -4.5625 3.15625 -4.34375 C 3.078125 -4.1875 2.625 -2.46875 2.28125 -1.296875 L 1.484375 -4.109375 C 1.390625 -4.453125 1.28125 -4.5625 0.875 -4.5625 L 0.671875 -4.5625 C 0.484375 -4.5625 0.265625 -4.5625 0.234375 -4.28125 L 1.296875 -0.453125 C 1.421875 0 1.6875 0 1.9375 0 L 2.21875 0 C 2.6875 0 2.765625 -0.15625 2.875 -0.546875 C 3.09375 -1.375 3.453125 -2.625 3.5 -3.15625 L 3.515625 -3.15625 C 3.5625 -2.59375 4 -1.015625 4.140625 -0.546875 C 4.25 -0.1875 4.296875 0 4.796875 0 L 5.46875 0 C 5.90625 0 6 -0.125 6.09375 -0.453125 Z M 7.171875 -4.28125 "/>
</g>
<g id="glyph-0-31">
<path d="M 2.1875 -3.84375 L 2.65625 -3.84375 C 2.78125 -3.84375 3.140625 -3.84375 3.140625 -4.203125 C 3.140625 -4.5625 2.78125 -4.5625 2.65625 -4.5625 L 2.15625 -4.5625 L 2.15625 -5.65625 C 2.15625 -5.90625 2.15625 -6.3125 2.796875 -6.3125 C 3.125 -6.3125 3.3125 -6.21875 3.515625 -6.03125 C 3.59375 -5.953125 3.625 -5.9375 3.671875 -5.9375 C 3.796875 -5.9375 3.796875 -6.03125 3.796875 -6.1875 L 3.796875 -6.65625 C 3.796875 -6.890625 3.78125 -6.890625 3.453125 -6.96875 C 3.15625 -7.03125 2.953125 -7.03125 2.796875 -7.03125 C 2.046875 -7.03125 0.859375 -6.859375 0.859375 -5.359375 L 0.859375 -4.5625 C 0.640625 -4.5625 0.296875 -4.5625 0.296875 -4.203125 C 0.296875 -3.84375 0.640625 -3.84375 0.859375 -3.84375 L 0.859375 -0.484375 C 0.859375 -0.125 0.96875 0 1.328125 0 L 1.703125 0 C 2.078125 0 2.1875 -0.125 2.1875 -0.484375 Z M 2.1875 -3.84375 "/>
</g>
<g id="glyph-0-32">
<path d="M 2.375 -3.09375 L 5 -3.09375 C 5.296875 -3.09375 5.46875 -3.171875 5.46875 -3.5625 C 5.46875 -3.9375 5.34375 -4.03125 5 -4.03125 L 2.375 -4.03125 L 2.375 -5.875 L 2.859375 -5.875 C 3.640625 -5.875 4.421875 -5.859375 5.203125 -5.859375 C 5.546875 -5.859375 5.78125 -5.859375 5.78125 -6.328125 L 5.78125 -6.40625 C 5.78125 -6.734375 5.71875 -6.890625 5.296875 -6.890625 L 1.390625 -6.890625 C 1.03125 -6.890625 0.90625 -6.78125 0.90625 -6.40625 L 0.90625 -0.484375 C 0.90625 -0.125 1.015625 0 1.390625 0 L 5.453125 0 C 5.828125 0 5.9375 -0.125 5.9375 -0.484375 L 5.9375 -0.625 C 5.9375 -1.09375 5.703125 -1.09375 5.375 -1.09375 C 4.859375 -1.09375 4.34375 -1.078125 3.828125 -1.078125 C 3.578125 -1.078125 2.546875 -1.0625 2.375 -1.0625 Z M 2.375 -3.09375 "/>
</g>
<g id="glyph-0-33">
<path d="M 7.296875 -3.40625 C 7.296875 -5.40625 6.5625 -7.140625 3.953125 -7.140625 C 1.203125 -7.140625 0.609375 -5.234375 0.609375 -3.40625 C 0.609375 -1.546875 1.25 0.21875 3.953125 0.21875 C 6.515625 0.21875 7.296875 -1.359375 7.296875 -3.40625 Z M 3.953125 -0.578125 C 2.078125 -0.578125 2.078125 -2.65625 2.078125 -3.5625 C 2.078125 -4.453125 2.078125 -6.359375 3.953125 -6.359375 C 5.828125 -6.359375 5.828125 -4.46875 5.828125 -3.5625 C 5.828125 -2.6875 5.828125 -0.578125 3.953125 -0.578125 Z M 3.953125 -0.578125 "/>
</g>
<g id="glyph-1-0">
</g>
<g id="glyph-1-1">
<path d="M 3.515625 -2.875 C 4.75 -2.875 5.796875 -3.78125 5.796875 -4.90625 C 5.796875 -5.96875 4.8125 -6.921875 3.4375 -6.921875 L 0.953125 -6.921875 L 0.953125 0 L 1.84375 0 L 1.84375 -2.875 Z M 3.21875 -6.359375 C 4.3125 -6.359375 5 -5.75 5 -4.90625 C 5 -4.109375 4.359375 -3.453125 3.21875 -3.453125 L 1.8125 -3.453125 L 1.8125 -6.359375 Z M 3.21875 -6.359375 "/>
</g>
<g id="glyph-1-2">
<path d="M 2.1875 -6.921875 L 0.953125 -6.921875 L 0.953125 0 L 1.734375 0 L 1.734375 -6.203125 L 1.75 -6.203125 C 1.9375 -5.796875 2.359375 -4.953125 2.40625 -4.84375 L 4.859375 0 L 6.09375 0 L 6.09375 -6.921875 L 5.3125 -6.921875 L 5.3125 -0.703125 L 5.296875 -0.703125 C 5.109375 -1.109375 4.6875 -1.96875 4.640625 -2.078125 Z M 2.1875 -6.921875 "/>
</g>
<g id="glyph-1-3">
<path d="M 4.359375 -7.09375 C 4.421875 -7.234375 4.421875 -7.25 4.421875 -7.28125 C 4.421875 -7.390625 4.328125 -7.484375 4.21875 -7.484375 C 4.078125 -7.484375 4.03125 -7.375 4 -7.28125 L 0.609375 2.109375 C 0.5625 2.25 0.5625 2.265625 0.5625 2.296875 C 0.5625 2.40625 0.640625 2.5 0.75 2.5 C 0.890625 2.5 0.9375 2.390625 0.96875 2.296875 Z M 4.359375 -7.09375 "/>
</g>
<g id="glyph-1-4">
<path d="M 4.640625 -6.640625 C 4.09375 -6.96875 3.53125 -7.140625 2.8125 -7.140625 C 1.421875 -7.140625 0.5625 -6.15625 0.5625 -5.171875 C 0.5625 -4.75 0.703125 -4.328125 1.09375 -3.90625 C 1.515625 -3.453125 1.953125 -3.34375 2.546875 -3.203125 C 3.390625 -2.984375 3.484375 -2.953125 3.765625 -2.71875 C 3.96875 -2.546875 4.1875 -2.21875 4.1875 -1.78125 C 4.1875 -1.125 3.640625 -0.46875 2.734375 -0.46875 C 2.328125 -0.46875 1.421875 -0.5625 0.59375 -1.28125 L 0.4375 -0.46875 C 1.3125 0.078125 2.109375 0.21875 2.734375 0.21875 C 4.0625 0.21875 4.96875 -0.78125 4.96875 -1.890625 C 4.96875 -2.53125 4.671875 -3.015625 4.453125 -3.25 C 3.984375 -3.75 3.65625 -3.84375 2.734375 -4.0625 C 2.15625 -4.203125 2 -4.25 1.6875 -4.5 C 1.625 -4.5625 1.34375 -4.859375 1.34375 -5.296875 C 1.34375 -5.875 1.890625 -6.484375 2.796875 -6.484375 C 3.640625 -6.484375 4.109375 -6.15625 4.484375 -5.84375 Z M 4.640625 -6.640625 "/>
</g>
<g id="glyph-1-5">
<path d="M 4.828125 -3.140625 L 4.828125 -3.75 L 1.828125 -3.75 L 1.828125 -6.25 L 3.125 -6.25 C 3.25 -6.25 3.375 -6.234375 3.484375 -6.234375 L 5.25 -6.234375 L 5.25 -6.890625 L 0.9375 -6.890625 L 0.9375 0 L 1.828125 0 L 1.828125 -3.140625 Z M 4.828125 -3.140625 "/>
</g>
<g id="glyph-1-6">
<path d="M 4.078125 -2.296875 L 6.859375 -2.296875 C 7 -2.296875 7.1875 -2.296875 7.1875 -2.5 C 7.1875 -2.6875 7 -2.6875 6.859375 -2.6875 L 4.078125 -2.6875 L 4.078125 -5.484375 C 4.078125 -5.625 4.078125 -5.8125 3.875 -5.8125 C 3.671875 -5.8125 3.671875 -5.625 3.671875 -5.484375 L 3.671875 -2.6875 L 0.890625 -2.6875 C 0.75 -2.6875 0.5625 -2.6875 0.5625 -2.5 C 0.5625 -2.296875 0.75 -2.296875 0.890625 -2.296875 L 3.671875 -2.296875 L 3.671875 0.5 C 3.671875 0.640625 3.671875 0.828125 3.875 0.828125 C 4.078125 0.828125 4.078125 0.640625 4.078125 0.5 Z M 4.078125 -2.296875 "/>
</g>
</g>
<clipPath id="clip-0">
<path clip-rule="nonzero" d="M 228 0 L 380.496094 0 L 380.496094 27 L 228 27 Z M 228 0 "/>
</clipPath>
<clipPath id="clip-1">
<path clip-rule="nonzero" d="M 377 33 L 380.496094 33 L 380.496094 36 L 377 36 Z M 377 33 "/>
</clipPath>
</defs>
<path fill="none" stroke-width="0.3985" stroke-linecap="butt" stroke-linejoin="miter" stroke="rgb(39.99939%, 0%, 39.99939%)" stroke-opacity="1" stroke-miterlimit="10" d="M 63.540406 13.670781 L 1.657594 13.670781 C -0.541625 13.670781 -2.326781 11.885625 -2.326781 9.686406 L -2.326781 -9.684688 C -2.326781 -11.887813 -0.541625 -13.672969 1.657594 -13.672969 L 63.540406 -13.672969 C 65.739625 -13.672969 67.524781 -11.887813 67.524781 -9.684688 L 67.524781 9.686406 C 67.524781 11.885625 65.739625 13.670781 63.540406 13.670781 Z M 63.540406 13.670781 " transform="matrix(1, 0, 0, -1, 2.526, 13.87)"/>
<g fill="rgb(39.99939%, 0%, 39.99939%)" fill-opacity="1">
<use xlink:href="#glyph-0-1" x="3.188" y="10.107"/>
<use xlink:href="#glyph-0-2" x="10.493575" y="10.107"/>
<use xlink:href="#glyph-0-3" x="16.083589" y="10.107"/>
<use xlink:href="#glyph-0-4" x="21.313954" y="10.107"/>
<use xlink:href="#glyph-0-5" x="23.860395" y="10.107"/>
<use xlink:href="#glyph-0-6" x="28.841695" y="10.107"/>
<use xlink:href="#glyph-0-7" x="32.868578" y="10.107"/>
<use xlink:href="#glyph-0-8" x="35.415018" y="10.107"/>
</g>
<g fill="rgb(39.99939%, 0%, 39.99939%)" fill-opacity="1">
<use xlink:href="#glyph-0-9" x="43.942008" y="10.107"/>
<use xlink:href="#glyph-0-3" x="49.532023" y="10.107"/>
<use xlink:href="#glyph-0-6" x="54.762388" y="10.107"/>
<use xlink:href="#glyph-0-3" x="58.789271" y="10.107"/>
<use xlink:href="#glyph-0-10" x="64.019636" y="10.107"/>
</g>
<g fill="rgb(39.99939%, 0%, 39.99939%)" fill-opacity="1">
<use xlink:href="#glyph-1-1" x="3.188" y="22.062"/>
<use xlink:href="#glyph-1-2" x="9.553105" y="22.062"/>
<use xlink:href="#glyph-1-3" x="16.609615" y="22.062"/>
<use xlink:href="#glyph-1-4" x="21.590915" y="22.062"/>
<use xlink:href="#glyph-1-5" x="27.126135" y="22.062"/>
<use xlink:href="#glyph-1-3" x="32.79884" y="22.062"/>
</g>
<g fill="rgb(39.99939%, 0%, 39.99939%)" fill-opacity="1">
<use xlink:href="#glyph-0-11" x="37.781" y="22.062"/>
<use xlink:href="#glyph-0-12" x="44.782715" y="22.062"/>
</g>
<g fill="rgb(0%, 0%, 0%)" fill-opacity="1">
<use xlink:href="#glyph-1-6" x="76.604" y="16.361"/>
</g>
<path fill="none" stroke-width="0.3985" stroke-linecap="butt" stroke-linejoin="miter" stroke="rgb(19.999695%, 0%, 59.999084%)" stroke-opacity="1" stroke-miterlimit="10" d="M 207.372437 7.971562 L 93.102906 7.971562 C 90.903688 7.971562 89.118531 6.186406 89.118531 3.983281 L 89.118531 -3.985469 C 89.118531 -6.184688 90.903688 -7.969844 93.102906 -7.969844 L 207.372437 -7.969844 C 209.571656 -7.969844 211.356812 -6.184688 211.356812 -3.985469 L 211.356812 3.983281 C 211.356812 6.186406 209.571656 7.971562 207.372437 7.971562 Z M 207.372437 7.971562 " transform="matrix(1, 0, 0, -1, 2.526, 13.87)"/>
<g fill="rgb(19.999695%, 0%, 59.999084%)" fill-opacity="1">
<use xlink:href="#glyph-0-13" x="94.632" y="16.361"/>
<use xlink:href="#glyph-0-14" x="102.547286" y="16.361"/>
<use xlink:href="#glyph-0-15" x="108.137301" y="16.361"/>
<use xlink:href="#glyph-0-16" x="116.771886" y="16.361"/>
<use xlink:href="#glyph-0-17" x="121.863771" y="16.361"/>
<use xlink:href="#glyph-0-7" x="125.571851" y="16.361"/>
<use xlink:href="#glyph-0-8" x="128.118291" y="16.361"/>
<use xlink:href="#glyph-0-3" x="132.989006" y="16.361"/>
<use xlink:href="#glyph-0-4" x="138.219371" y="16.361"/>
</g>
<g fill="rgb(19.999695%, 0%, 59.999084%)" fill-opacity="1">
<use xlink:href="#glyph-0-17" x="144.422086" y="16.361"/>
<use xlink:href="#glyph-0-16" x="148.130166" y="16.361"/>
<use xlink:href="#glyph-0-4" x="153.222051" y="16.361"/>
<use xlink:href="#glyph-0-3" x="155.768491" y="16.361"/>
<use xlink:href="#glyph-0-6" x="160.998856" y="16.361"/>
<use xlink:href="#glyph-0-7" x="165.025739" y="16.361"/>
<use xlink:href="#glyph-0-18" x="167.57218" y="16.361"/>
<use xlink:href="#glyph-0-7" x="172.55348" y="16.361"/>
</g>
<g fill="rgb(19.999695%, 0%, 59.999084%)" fill-opacity="1">
<use xlink:href="#glyph-0-6" x="175.089958" y="16.361"/>
</g>
<g fill="rgb(19.999695%, 0%, 59.999084%)" fill-opacity="1">
<use xlink:href="#glyph-0-5" x="178.817963" y="16.361"/>
</g>
<g fill="rgb(19.999695%, 0%, 59.999084%)" fill-opacity="1">
<use xlink:href="#glyph-0-19" x="187.455537" y="16.361"/>
<use xlink:href="#glyph-0-13" x="191.717537" y="16.361"/>
<use xlink:href="#glyph-0-20" x="199.632823" y="16.361"/>
<use xlink:href="#glyph-0-21" x="206.634538" y="16.361"/>
</g>
<g fill="rgb(0%, 0%, 0%)" fill-opacity="1">
<use xlink:href="#glyph-1-6" x="219.754" y="16.361"/>
</g>
<g clip-path="url(#clip-0)">
<path fill="none" stroke-width="0.3985" stroke-linecap="butt" stroke-linejoin="miter" stroke="rgb(0%, 0%, 79.998779%)" stroke-opacity="1" stroke-miterlimit="10" d="M 373.790406 7.416875 L 235.665406 7.416875 C 233.466187 7.416875 231.681031 5.631719 231.681031 3.4325 L 231.681031 -3.430781 C 231.681031 -5.633906 233.466187 -7.415156 235.665406 -7.415156 L 373.790406 -7.415156 C 375.989625 -7.415156 377.774781 -5.633906 377.774781 -3.430781 L 377.774781 3.4325 C 377.774781 5.631719 375.989625 7.416875 373.790406 7.416875 Z M 373.790406 7.416875 " transform="matrix(1, 0, 0, -1, 2.526, 13.87)"/>
</g>
<g fill="rgb(0%, 0%, 79.998779%)" fill-opacity="1">
<use xlink:href="#glyph-0-22" x="237.193" y="16.361"/>
<use xlink:href="#glyph-0-4" x="244.498575" y="16.361"/>
<use xlink:href="#glyph-0-3" x="247.045015" y="16.361"/>
<use xlink:href="#glyph-0-8" x="252.27538" y="16.361"/>
<use xlink:href="#glyph-0-23" x="257.146095" y="16.361"/>
<use xlink:href="#glyph-0-24" x="262.432251" y="16.361"/>
<use xlink:href="#glyph-0-25" x="266.085536" y="16.361"/>
<use xlink:href="#glyph-0-26" x="271.675551" y="16.361"/>
<use xlink:href="#glyph-0-4" x="277.154981" y="16.361"/>
<use xlink:href="#glyph-0-16" x="279.701422" y="16.361"/>
</g>
<g fill="rgb(0%, 0%, 79.998779%)" fill-opacity="1">
<use xlink:href="#glyph-0-27" x="288.449581" y="16.361"/>
</g>
<g fill="rgb(0%, 0%, 79.998779%)" fill-opacity="1">
<use xlink:href="#glyph-0-16" x="294.338474" y="16.361"/>
<use xlink:href="#glyph-0-17" x="299.430358" y="16.361"/>
<use xlink:href="#glyph-0-6" x="303.138438" y="16.361"/>
<use xlink:href="#glyph-0-14" x="307.165321" y="16.361"/>
<use xlink:href="#glyph-0-17" x="312.755336" y="16.361"/>
<use xlink:href="#glyph-0-28" x="316.463416" y="16.361"/>
<use xlink:href="#glyph-0-3" x="322.053431" y="16.361"/>
<use xlink:href="#glyph-0-6" x="327.283796" y="16.361"/>
<use xlink:href="#glyph-0-7" x="331.310678" y="16.361"/>
<use xlink:href="#glyph-0-26" x="333.857119" y="16.361"/>
<use xlink:href="#glyph-0-2" x="339.336549" y="16.361"/>
</g>
<g fill="rgb(0%, 0%, 79.998779%)" fill-opacity="1">
<use xlink:href="#glyph-0-6" x="348.582838" y="16.361"/>
<use xlink:href="#glyph-0-25" x="352.609721" y="16.361"/>
<use xlink:href="#glyph-0-16" x="358.199736" y="16.361"/>
<use xlink:href="#glyph-0-26" x="363.291621" y="16.361"/>
</g>
<g fill="rgb(0%, 0%, 79.998779%)" fill-opacity="1">
<use xlink:href="#glyph-0-17" x="368.46221" y="16.361"/>
<use xlink:href="#glyph-0-5" x="372.17029" y="16.361"/>
</g>
<g clip-path="url(#clip-1)">
<path fill-rule="nonzero" fill="rgb(0%, 50%, 0%)" fill-opacity="1" d="M 380.167969 33.601562 C 379.792969 34.347656 379.144531 34.460938 377.898438 34.460938 C 377.242188 34.460938 377.242188 35.457031 377.898438 35.457031 C 379.144531 35.457031 380.238281 34.570312 380.613281 33.824219 C 380.757812 33.53125 380.3125 33.308594 380.167969 33.601562 "/>
</g>
<path fill-rule="nonzero" fill="rgb(0%, 50%, 0%)" fill-opacity="1" d="M 190.546875 36.316406 C 190.921875 35.566406 191.570312 35.457031 192.8125 35.457031 C 193.472656 35.457031 193.472656 34.460938 192.8125 34.460938 C 191.570312 34.460938 190.472656 35.34375 190.101562 36.09375 C 189.953125 36.386719 190.398438 36.609375 190.546875 36.316406 "/>
<path fill="none" stroke-width="0.99628" stroke-linecap="butt" stroke-linejoin="miter" stroke="rgb(0%, 50%, 0%)" stroke-opacity="1" stroke-miterlimit="10" d="M 375.372437 -21.087031 L 190.2865 -21.087031 " transform="matrix(1, 0, 0, -1, 2.526, 13.87)"/>
<path fill-rule="nonzero" fill="rgb(0%, 50%, 0%)" fill-opacity="1" d="M 190.546875 36.09375 C 190.171875 35.34375 189.078125 34.460938 187.832031 34.460938 C 187.175781 34.460938 187.175781 35.457031 187.832031 35.457031 C 189.078125 35.457031 189.726562 35.566406 190.101562 36.316406 C 190.246094 36.609375 190.695312 36.386719 190.546875 36.09375 "/>
<path fill-rule="nonzero" fill="rgb(0%, 50%, 0%)" fill-opacity="1" d="M 0.0351562 33.824219 C 0.410156 34.570312 1.503906 35.457031 2.75 35.457031 C 3.40625 35.457031 3.40625 34.460938 2.75 34.460938 C 1.503906 34.460938 0.855469 34.347656 0.480469 33.601562 C 0.332031 33.308594 -0.113281 33.53125 0.0351562 33.824219 "/>
<path fill="none" stroke-width="0.99628" stroke-linecap="butt" stroke-linejoin="miter" stroke="rgb(0%, 50%, 0%)" stroke-opacity="1" stroke-miterlimit="10" d="M 185.306031 -21.087031 L 0.224 -21.087031 " transform="matrix(1, 0, 0, -1, 2.526, 13.87)"/>
<g fill="rgb(0%, 50%, 0%)" fill-opacity="1">
<use xlink:href="#glyph-0-29" x="94.575" y="46.953"/>
<use xlink:href="#glyph-0-16" x="100.663145" y="46.953"/>
<use xlink:href="#glyph-0-15" x="105.75503" y="46.953"/>
<use xlink:href="#glyph-0-7" x="114.389615" y="46.953"/>
<use xlink:href="#glyph-0-24" x="116.936056" y="46.953"/>
<use xlink:href="#glyph-0-3" x="120.589341" y="46.953"/>
<use xlink:href="#glyph-0-2" x="125.819706" y="46.953"/>
<use xlink:href="#glyph-0-3" x="131.409721" y="46.953"/>
<use xlink:href="#glyph-0-4" x="136.640086" y="46.953"/>
<use xlink:href="#glyph-0-5" x="139.186527" y="46.953"/>
<use xlink:href="#glyph-0-6" x="144.167827" y="46.953"/>
<use xlink:href="#glyph-0-7" x="148.194709" y="46.953"/>
<use xlink:href="#glyph-0-8" x="150.74115" y="46.953"/>
<use xlink:href="#glyph-0-3" x="155.611865" y="46.953"/>
<use xlink:href="#glyph-0-4" x="160.84223" y="46.953"/>
</g>
<g fill="rgb(0%, 50%, 0%)" fill-opacity="1">
<use xlink:href="#glyph-0-30" x="167.044945" y="46.953"/>
</g>
<g fill="rgb(0%, 50%, 0%)" fill-opacity="1">
<use xlink:href="#glyph-0-3" x="174.152264" y="46.953"/>
<use xlink:href="#glyph-0-18" x="179.382629" y="46.953"/>
<use xlink:href="#glyph-0-16" x="184.363929" y="46.953"/>
<use xlink:href="#glyph-0-31" x="189.455814" y="46.953"/>
<use xlink:href="#glyph-0-26" x="192.804243" y="46.953"/>
</g>
<g fill="rgb(0%, 50%, 0%)" fill-opacity="1">
<use xlink:href="#glyph-0-17" x="197.974833" y="46.953"/>
</g>
<g fill="rgb(0%, 50%, 0%)" fill-opacity="1">
<use xlink:href="#glyph-0-15" x="201.692875" y="46.953"/>
</g>
<g fill="rgb(0%, 50%, 0%)" fill-opacity="1">
<use xlink:href="#glyph-0-15" x="213.973772" y="46.953"/>
<use xlink:href="#glyph-0-26" x="222.608358" y="46.953"/>
</g>
<g fill="rgb(0%, 50%, 0%)" fill-opacity="1">
<use xlink:href="#glyph-0-9" x="228.396628" y="46.953"/>
<use xlink:href="#glyph-0-16" x="233.986643" y="46.953"/>
<use xlink:href="#glyph-0-4" x="239.078528" y="46.953"/>
<use xlink:href="#glyph-0-10" x="241.624969" y="46.953"/>
</g>
<g fill="rgb(0%, 50%, 0%)" fill-opacity="1">
<use xlink:href="#glyph-0-32" x="249.54125" y="46.953"/>
</g>
<g fill="rgb(0%, 50%, 0%)" fill-opacity="1">
<use xlink:href="#glyph-0-33" x="255.924288" y="46.953"/>
<use xlink:href="#glyph-0-22" x="263.839574" y="46.953"/>
<use xlink:href="#glyph-0-13" x="271.145149" y="46.953"/>
<use xlink:href="#glyph-0-20" x="279.060434" y="46.953"/>
</g>
</svg>
